{
    "prepare_queue": {
        "installed": [],
        "uninstalled": []
    },
    "config_munge": {
        "files": {}
    },
    "installed_plugins": {
        "cordova-plugin-whitelist": {
            "PACKAGE_NAME": "br.com.trocaimovel"
        },
        "cordova-plugin-splashscreen": {
            "PACKAGE_NAME": "br.com.trocaimovel"
        },
        "cordova-plugin-statusbar": {
            "PACKAGE_NAME": "br.com.trocaimovel"
        },
        "cordova-plugin-inappbrowser": {
            "PACKAGE_NAME": "br.com.trocaimovel"
        },
        "cordova-plugin-facebook": {
            "FACEBOOK_APP_ID": "1112856288771500",
            "FACEBOOK_DISPLAY_NAME": "Troca Imóvel",
            "PACKAGE_NAME": "br.com.trocaimovel"
        },
        "cordova-plugin-x-socialsharing": {
            "PACKAGE_NAME": "com.troca.imovel"
        }
    },
    "dependent_plugins": {}
}