{
    "cordova-plugin-whitelist": {
        "source": {
            "type": "registry",
            "id": "cordova-plugin-whitelist@1"
        },
        "is_top_level": true,
        "variables": {}
    },
    "cordova-plugin-statusbar": {
        "source": {
            "type": "registry",
            "id": "cordova-plugin-statusbar"
        },
        "is_top_level": true,
        "variables": {}
    },
    "cordova-plugin-splashscreen": {
        "source": {
            "type": "registry",
            "id": "cordova-plugin-splashscreen"
        },
        "is_top_level": true,
        "variables": {}
    },
    "cordova-plugin-inappbrowser": {
        "source": {
            "type": "registry",
            "id": "cordova-plugin-inappbrowser@1.5.0"
        },
        "is_top_level": true,
        "variables": {}
    },
    "cordova-plugin-facebook": {
        "source": {
            "type": "registry",
            "id": "cordova-plugin-facebook"
        },
        "is_top_level": true,
        "variables": {
            "FACEBOOK_APP_ID": "1112856288771500",
            "FACEBOOK_DISPLAY_NAME": "Troca Imóvel"
        }
    },
    "cordova-plugin-x-socialsharing": {
        "source": {
            "type": "registry",
            "id": "cordova-plugin-x-socialsharing"
        },
        "is_top_level": true,
        "variables": {}
    }
}